%YAML 1.1
%TAG !u! tag:unity3d.com,2011:
--- !u!1001 &1336708835226172188
PrefabInstance:
  m_ObjectHideFlags: 0
  serializedVersion: 2
  m_Modification:
    serializedVersion: 3
    m_TransformParent: {fileID: 0}
    m_Modifications:
    - target: {fileID: 101404820899654320, guid: ab13d749823fd4a2bbf121d43b2c8030, type: 3}
      propertyPath: m_Name
      value: RedCubeJunk Variant
      objectReference: {fileID: 0}
    - target: {fileID: 101404820899654320, guid: ab13d749823fd4a2bbf121d43b2c8030, type: 3}
      propertyPath: m_TagString
      value: AimableObject
      objectReference: {fileID: 0}
    - target: {fileID: 101404820899654321, guid: ab13d749823fd4a2bbf121d43b2c8030, type: 3}
      propertyPath: m_RootOrder
      value: 0
      objectReference: {fileID: 0}
    - target: {fileID: 101404820899654321, guid: ab13d749823fd4a2bbf121d43b2c8030, type: 3}
      propertyPath: m_LocalPosition.x
      value: -3.0146432
      objectReference: {fileID: 0}
    - target: {fileID: 101404820899654321, guid: ab13d749823fd4a2bbf121d43b2c8030, type: 3}
      propertyPath: m_LocalPosition.y
      value: 5.21
      objectReference: {fileID: 0}
    - target: {fileID: 101404820899654321, guid: ab13d749823fd4a2bbf121d43b2c8030, type: 3}
      propertyPath: m_LocalPosition.z
      value: 15.43015
      objectReference: {fileID: 0}
    - target: {fileID: 101404820899654321, guid: ab13d749823fd4a2bbf121d43b2c8030, type: 3}
      propertyPath: m_LocalRotation.w
      value: 1
      objectReference: {fileID: 0}
    - target: {fileID: 101404820899654321, guid: ab13d749823fd4a2bbf121d43b2c8030, type: 3}
      propertyPath: m_LocalRotation.x
      value: 0
      objectReference: {fileID: 0}
    - target: {fileID: 101404820899654321, guid: ab13d749823fd4a2bbf121d43b2c8030, type: 3}
      propertyPath: m_LocalRotation.y
      value: 0
      objectReference: {fileID: 0}
    - target: {fileID: 101404820899654321, guid: ab13d749823fd4a2bbf121d43b2c8030, type: 3}
      propertyPath: m_LocalRotation.z
      value: 0
      objectReference: {fileID: 0}
    - target: {fileID: 101404820899654321, guid: ab13d749823fd4a2bbf121d43b2c8030, type: 3}
      propertyPath: m_LocalEulerAnglesHint.x
      value: 0
      objectReference: {fileID: 0}
    - target: {fileID: 101404820899654321, guid: ab13d749823fd4a2bbf121d43b2c8030, type: 3}
      propertyPath: m_LocalEulerAnglesHint.y
      value: 0
      objectReference: {fileID: 0}
    - target: {fileID: 101404820899654321, guid: ab13d749823fd4a2bbf121d43b2c8030, type: 3}
      propertyPath: m_LocalEulerAnglesHint.z
      value: 0
      objectReference: {fileID: 0}
    - target: {fileID: 101404820899654324, guid: ab13d749823fd4a2bbf121d43b2c8030, type: 3}
      propertyPath: 'm_Materials.Array.data[0]'
      value: 
      objectReference: {fileID: 2100000, guid: 756cf97c2b10925eeba767cb0936d125, type: 2}
    - target: {fileID: 2710451482638811219, guid: ab13d749823fd4a2bbf121d43b2c8030, type: 3}
      propertyPath: Color
      value: 2
      objectReference: {fileID: 0}
    - target: {fileID: 8000831780787245531, guid: ab13d749823fd4a2bbf121d43b2c8030, type: 3}
      propertyPath: color
      value: 2
      objectReference: {fileID: 0}
    m_RemovedComponents: []
    m_RemovedGameObjects: []
    m_AddedGameObjects: []
    m_AddedComponents: []
  m_SourcePrefab: {fileID: 100100000, guid: ab13d749823fd4a2bbf121d43b2c8030, type: 3}
